%YAML 1.1
%TAG !u! tag:unity3d.com,2011:
--- !u!1045 &1
EditorBuildSettings:
  m_ObjectHideFlags: 0
  serializedVersion: 2
  m_Scenes:
  - enabled: 0
    path: 
    guid: 00000000000000000000000000000000
  - enabled: 1
    path: Assets/Scenes/Main Menu.unity
    guid: 0de8792552b551444b95f0f635e3efc9
  - enabled: 1
    path: Assets/Scenes/Gameplay.unity
    guid: 1014832a1a0e6f7449a8c6a06eadb539
  - enabled: 1
    path: Assets/Scenes/Game Over.unity
    guid: b3716bdce470bf54db57e73a5abb11df
  - enabled: 1
    path: Assets/Scenes/Credits.unity
    guid: 13e91cf95d494414f97892065dd3b3ca
  m_configObjects: {}
